
=== Thu Oct  3 17:32:39 2019

Packages were changed.
Update Mode: mergeDefaultDependencies

The following packages were updated:
  com.unity.analytics from version 3.2.2 to 3.3.2
  com.unity.collab-proxy from version 1.2.9 to 1.2.16
  com.unity.package-manager-ui from version 2.1.1 to 2.1.2
  com.unity.purchasing from version 2.0.1 to 2.0.6
  com.unity.textmeshpro from version 1.3.0 to 2.0.1
  com.unity.timeline from version 0.0.0-builtin to 1.0.0

=== Thu Oct  3 17:39:32 2019

Packages were changed.
Update Mode: mergeDefaultDependencies

The following packages were added:
  com.unity.cinemachine@2.3.3
  com.unity.multiplayer-hlapi@1.0.2
  com.unity.postprocessing@2.1.4
  com.unity.xr.legacyinputhelpers@2.0.2
The following packages were updated:
  com.unity.ads from version 2.0.8 to 2.3.1
